…
#### Task \#3 Compute a trimmed mean of life expectancy for different years. Or a weighted mean, weighting by population. Just try something other than the plain vanilla mean.

I calcualte the weighted mean of life expectancy by pop for each continent and plot the change over time as followng:

``` r
gapminder %>% 
  select(continent, year, lifeExp, pop) %>% 
  group_by(continent, year) %>% 
  summarise(mean = weighted.mean(lifeExp, pop)) 
```

    ## # A tibble: 60 x 3
    ## # Groups:   continent [?]
    ##    continent  year  mean
    ##    <fct>     <int> <dbl>
    ##  1 Africa     1952  38.8
    ##  2 Africa     1957  40.9
    ##  3 Africa     1962  43.1
    ##  4 Africa     1967  45.2
    ##  5 Africa     1972  47.2
    ##  6 Africa     1977  49.2
    ##  7 Africa     1982  51.0
    ##  8 Africa     1987  52.8
    ##  9 Africa     1992  53.4
    ## 10 Africa     1997  53.3
    ## # ... with 50 more rows
…
#### Task \#4 How is life expectancy changing over time on different continents?

I calcualte the mean of life expectancy for each continent and plot the change over time as followng:

``` r
gapminder %>% 
  select(continent, year, lifeExp, pop) %>% 
  group_by(continent, year) %>% 
  summarise(mean = mean(lifeExp)) 
```

    ## # A tibble: 60 x 3
    ## # Groups:   continent [?]
    ##    continent  year  mean
    ##    <fct>     <int> <dbl>
    ##  1 Africa     1952  39.1
    ##  2 Africa     1957  41.3
    ##  3 Africa     1962  43.3
    ##  4 Africa     1967  45.3
    ##  5 Africa     1972  47.5
    ##  6 Africa     1977  49.6
    ##  7 Africa     1982  51.6
    ##  8 Africa     1987  53.3
    ##  9 Africa     1992  53.6
    ## 10 Africa     1997  53.6
    ## # ... with 50 more rows
…
